{
  "iisSettings": {
    "windowsAuthentication": false,
    "anonymousAuthentication": true,
    "iisExpress": {
      "applicationUrl": "http://localhost:61003",
      "sslPort": 0
    }
  },
  "profiles": {
"Electron.NET App": {
"commandName": "Executable",
"executablePath": "C:\\Program Files\\dotnet\\dotnet.exe",
"commandLineArgs": "electronize start"
},

    "IIS Express": {
      "commandName": "IISExpress",
      "launchBrowser": true,
      "environmentVariables": {
        "ASPNETCORE_ENVIRONMENT": "Development"
      }
    },
    "StoreLedger": {
      "commandName": "Project",
      "launchBrowser": true,
      "applicationUrl": "http://localhost:5000",
      "environmentVariables": {
        "ASPNETCORE_ENVIRONMENT": "Development"
      }
    }
  }
}